BT5152 Final Project
…
Topic-Term Visualization

lda <- topic_models[[optimal_idx]]

lda_td <- tidy(lda)

top_terms <- lda_td %>%
  group_by(topic) %>%
  top_n(10, beta) %>%
  ungroup() %>%
  arrange(topic, -beta)

top_terms

## # A tibble: 60 x 3
##    topic term        beta
##    <int> <chr>      <dbl>
##  1     1 enron    0.220  
##  2     1 ect      0.152  
##  3     1 hou      0.0912 
##  4     1 corp     0.0204 
##  5     1 enronxg  0.0183 
##  6     1 subject  0.0164 
##  7     1 communic 0.0151 
##  8     1 forward  0.0139 
##  9     1 lon      0.0113 
## 10     1 jeff     0.00947
## # ... with 50 more rows
…
